<svg
    xmlns="http://www.w3.org/2000/svg"
    viewBox="0 0 448 512"
    id="vector">
    <path
        id="path"
        d="M 89.6 204.5 L 89.6 320.3 C 89.6 335.7 77.5 348 62.1 348 C 46.8 348 32 335.6 32 320.3 L 32 204.5 C 32 189.4 46.8 177 62.1 177 C 77.2 177 89.6 189.4 89.6 204.5 Z M 100.4 361.5 C 100.4 377.9 113.6 391.1 130 391.1 L 149.9 391.1 L 150.2 452.2 C 150.2 489.1 205.4 488.8 205.4 452.2 L 205.4 391.1 L 242.6 391.1 L 242.6 452.2 C 242.6 488.9 298.1 489 298.1 452.2 L 298.1 391.1 L 318.3 391.1 C 334.5 391.1 347.7 377.9 347.7 361.5 L 347.7 182.1 L 100.4 182.1 L 100.4 361.5 Z M 348.4 172.4 L 99.3 172.4 C 99.3 129.6 124.9 92.4 162.9 73 L 143.8 37.7 C 141 32.8 148.1 29.7 150.5 33.9 L 169.9 69.5 C 204.8 54 244.9 54.8 278.2 69.5 L 297.5 34 C 300 29.7 307 32.9 304.2 37.8 L 285.1 73 C 322.8 92.4 348.4 129.6 348.4 172.4 Z M 177.7 116.9 C 177.7 111.2 173.1 106.4 167.2 106.4 C 161.5 106.4 157 111.2 157 116.9 C 157 122.6 161.6 127.4 167.2 127.4 C 173.1 127.4 177.7 122.6 177.7 116.9 Z M 291.1 116.9 C 291.1 111.2 286.5 106.4 280.9 106.4 C 275 106.4 270.4 111.2 270.4 116.9 C 270.4 122.6 275 127.4 280.9 127.4 C 286.5 127.4 291.1 122.6 291.1 116.9 Z M 385.9 177 C 370.8 177 358.4 189.1 358.4 204.5 L 358.4 320.3 C 358.4 335.7 370.8 348 385.9 348 C 401.3 348 416 335.6 416 320.3 L 416 204.5 C 416 189.1 401.2 177 385.9 177 Z"
        fill="none"
        stroke="#d50000"
        stroke-width="7"/>
    <path
        id="path_1"
        d="M 267.092 239.634 L 267.092 249.125 C 267.092 251.007 265.995 252.873 263.848 254.641 C 261.704 256.405 258.571 258.018 254.657 259.383 C 246.832 262.111 235.992 263.811 224 263.811 C 212.008 263.811 201.168 262.111 193.343 259.383 C 189.429 258.018 186.296 256.405 184.152 254.641 C 182.005 252.873 180.908 251.007 180.908 249.125 L 180.908 239.634 C 180.908 237.753 182.005 235.886 184.152 234.119 C 186.296 232.355 189.429 230.742 193.343 229.377 C 201.168 226.649 212.008 224.948 224 224.948 C 235.992 224.948 246.832 226.649 254.657 229.377 C 258.571 230.742 261.704 232.355 263.848 234.119 C 265.995 235.886 267.092 237.753 267.092 239.634 Z M 267.092 261.956 L 267.092 282.345 C 267.092 284.226 265.995 286.093 263.848 287.86 C 261.704 289.624 258.571 291.237 254.657 292.602 C 246.832 295.33 235.992 297.031 224 297.031 C 212.008 297.031 201.168 295.33 193.343 292.602 C 189.429 291.237 186.296 289.624 184.152 287.86 C 182.005 286.093 180.908 284.226 180.908 282.345 L 180.908 261.956 C 185.607 265.166 191.992 267.523 199.202 269.101 C 206.835 270.771 215.428 271.574 224 271.574 C 232.572 271.574 241.165 270.771 248.798 269.101 C 256.008 267.523 262.393 265.166 267.092 261.956 Z M 248.798 302.32 C 256.008 300.742 262.393 298.385 267.092 295.175 L 267.092 315.564 C 267.092 317.445 265.995 319.312 263.848 321.079 C 261.704 322.844 258.571 324.457 254.657 325.821 C 246.832 328.55 235.992 330.25 224 330.25 C 212.008 330.25 201.168 328.55 193.343 325.821 C 189.429 324.457 186.296 322.844 184.152 321.079 C 182.005 319.312 180.908 317.445 180.908 315.564 L 180.908 295.175 C 185.607 298.385 191.992 300.742 199.202 302.32 C 206.835 303.99 215.428 304.793 224 304.793 C 232.572 304.793 241.165 303.99 248.798 302.32 Z"
        fill="none"
        stroke="#d50000"
        stroke-width="7"/>
</svg>
